{
  "swagger": "2.0",
  "info": {
    "title": "api/core.proto",
    "version": "version not set"
  },
  "tags": [
    {
      "name": "Core"
    }
  ],
  "consumes": [
    "application/json"
  ],
  "produces": [
    "application/json"
  ],
  "paths": {
    "/v1/init": {
      "post": {
        "operationId": "Core_Initialize",
        "responses": {
          "200": {
            "description": "A successful response.",
            "schema": {
              "$ref": "#/definitions/coreInitializeReply"
            }
          },
          "default": {
            "description": "An unexpected error response.",
            "schema": {
              "$ref": "#/definitions/rpcStatus"
            }
          }
        },
        "parameters": [
          {
            "name": "body",
            "in": "body",
            "required": true,
            "schema": {
              "$ref": "#/definitions/coreInitializeRequest"
            }
          }
        ],
        "tags": [
          "Core"
        ]
      }
    }
  },
  "definitions": {
    "coreInitializeReply": {
      "type": "object",
      "properties": {
        "message": {
          "type": "string"
        }
      }
    },
    "coreInitializeRequest": {
      "type": "object",
      "properties": {
        "timezone": {
          "type": "string"
        }
      }
    },
    "protobufAny": {
      "type": "object",
      "properties": {
        "typeUrl": {
          "type": "string"
        },
        "value": {
          "type": "string",
          "format": "byte"
        }
      }
    },
    "rpcStatus": {
      "type": "object",
      "properties": {
        "code": {
          "type": "integer",
          "format": "int32"
        },
        "message": {
          "type": "string"
        },
        "details": {
          "type": "array",
          "items": {
            "$ref": "#/definitions/protobufAny"
          }
        }
      }
    }
  }
}
